{
    "namespace": "",
    "packageDirectories": [
        {
            "path": "src",
            "default": true
        }
    ],
    "sfdcLoginUrl": "https://login.salesforce.com",
    "sourceApiVersion": "46.0"
}
